,,,Period Variability,Period Variability,Initial Synchrony Variability,Initial Synchrony Variability,Stage Transition Phases,Stage Transition Phases,
Strain,Min. sigma,sigma^*,d sigma^*,d mu^*,d sigma_0^*,d mu_0^*,d theta_{RT}^*,d theta_{TS}^*,d Model Error
3D7 (39),5.80e-02,5.80e-02,2.8143,13.5640,-0.7582,-0.6993,0.0320,0.0124,0.9265
3D7 (39),6.96e-02,6.96e-02,3.5771,19.9815,-0.9986,-0.5732,0.0296,0.0176,1.3410
3D7 (39),8.12e-02,8.12e-02,4.3402,27.5776,-0.9371,1.2741,0.0396,0.0312,1.7822
SA250 (54),5.80e-02,5.80e-02,0.0403,0.0824,2.1488,0.0002,0.0007,0.0005,0.0122
SA250 (54),6.96e-02,6.96e-02,0.2483,0.5592,8.1851,0.0005,0.0036,0.0011,0.2369
SA250 (54),8.12e-02,8.12e-02,0.4564,1.1234,29.4223,0.0004,0.0051,0.0020,0.7536
FVO (43),5.80e-02,5.80e-02,0.2924,0.6711,-0.2050,-0.0042,-0.0063,-0.0042,0.1559
FVO (43),6.96e-02,6.96e-02,0.5509,1.4075,-0.3641,-0.0065,-0.0126,-0.0013,0.5611
FVO (43),8.12e-02,8.12e-02,0.8093,2.2787,-0.6710,-0.0131,-0.0204,-0.0060,1.1736
D6 (36),5.80e-02,5.80e-02,45.2599,2141.3523,-0.6461,-0.3891,-0.0333,-0.0187,0.9022
D6 (36),6.96e-02,6.96e-02,54.5056,3084.7929,-0.7031,-0.5430,-0.0489,-0.0216,1.3805
D6 (36),8.12e-02,8.12e-02,63.7543,4201.2493,-0.8246,-0.7054,-0.0639,-0.0265,1.9347
HB3 (46),5.80e-02,5.80e-02,0.2776,0.6329,-0.3913,-0.3909,-0.0139,-0.0088,0.2376
HB3 (46),6.96e-02,6.96e-02,0.5331,1.3525,-0.9996,-0.6884,-0.0248,-0.0139,0.9371
HB3 (46),8.12e-02,8.12e-02,0.7885,2.2037,-0.9961,-0.9788,-0.0349,-0.0196,2.3097
